…
for (var in var_names) {              # iterate through all the variables
    xpath <- paste("//", node, "/", var)  # form the xpath
    num_children <- max(xml_length(xml_find_all(dat, xpath)))
    if (num_children == 0) {  # skip if the node has children
        value_xpath <- xml_text(xml_find_all(dat, xpath)) # get all the values
        vx <- value_xpath                                  # make it a shorter name
        # if the variables are all not present, add NA. max=25
        # cat(var, max_obs, length(vx), "\n")
        if (length(vx) < max_obs) vx <- c(rep(NA, max_obs - length(vx)), vx)
        li_vars[[var]] <- vx
    }
}
tS_df <- as.data.frame(li_vars, stringsAsFactors = FALSE)
as.tibble(tS_df)
#> # A tibble: 25 x 18
#>    dTimStn typeTrajStation md    tvd   incl  azi   dispNs dispEw vertSect
#>    <chr>   <chr>           <chr> <chr> <chr> <chr> <chr>  <chr>  <chr>   
#>  1 2016-0~ tie in point    0     0     0     0     0      0      0       
#>  2 2016-0~ gyro north see~ 145.~ 145.~ 0     0     0      0      0       
#>  3 2016-0~ gyro north see~ 218.5 218.~ 0.00~ 3.44~ -0.15~ -0.04~ -0.1573~
#>  4 2016-0~ gyro north see~ 259   258.~ 0.00~ 4.45~ -0.26~ -0.13~ -0.2612~
#>  5 2016-0~ gyro north see~ 299.5 299.~ 0.00~ 4.20~ -0.33~ -0.30~ -0.3375~
#>  6 2016-0~ gyro north see~ 340   339.~ 0.00~ 0.61~ -0.27~ -0.32~ -0.2703~
#>  7 2016-0~ gyro north see~ 394.~ 394.~ 0.00~ 6.00~ 0.060~ -0.25~ 0.06012~
#>  8 2016-0~ gyro north see~ 420.~ 420.~ 0.00~ 6.15~ 0.215~ -0.28~ 0.21588~
#>  9 2016-0~ gyro north see~ 454.~ 454.~ 0.08~ 3.45~ -1.01~ -0.72~ -1.0151~
#> 10 2016-0~ gyro north see~ 497.~ 497.~ 0.15~ 3.48~ -5.80~ -2.36~ -5.8030~
#> # ... with 15 more rows, and 9 more variables: dls <chr>,
#> #   typeSurveyTool <chr>, rateTurn <chr>, rateBuild <chr>,
#> #   gravAccelCorUsed <chr>, magXAxialCorUsed <chr>, sagCorUsed <chr>,
#> #   magDrlstrCorUsed <chr>, statusTrajStation <chr>
…
Test the function

# using function get_numrows_parent_node()
num_trajectoryStation <- get_numrows_parent_node(dat, "trajectoryStation", 
                                                 attribute = "uid")
tS.trajectoryStation_df <- nodes_as_df(dat, "trajectoryStation", num_trajectoryStation)
as.tibble(tS.trajectoryStation_df)
#> # A tibble: 25 x 18
#>    dTimStn typeTrajStation md    tvd   incl  azi   dispNs dispEw vertSect
#>    <chr>   <chr>           <chr> <chr> <chr> <chr> <chr>  <chr>  <chr>   
#>  1 2016-0~ tie in point    0     0     0     0     0      0      0       
#>  2 2016-0~ gyro north see~ 145.~ 145.~ 0     0     0      0      0       
#>  3 2016-0~ gyro north see~ 218.5 218.~ 0.00~ 3.44~ -0.15~ -0.04~ -0.1573~
#>  4 2016-0~ gyro north see~ 259   258.~ 0.00~ 4.45~ -0.26~ -0.13~ -0.2612~
#>  5 2016-0~ gyro north see~ 299.5 299.~ 0.00~ 4.20~ -0.33~ -0.30~ -0.3375~
#>  6 2016-0~ gyro north see~ 340   339.~ 0.00~ 0.61~ -0.27~ -0.32~ -0.2703~
#>  7 2016-0~ gyro north see~ 394.~ 394.~ 0.00~ 6.00~ 0.060~ -0.25~ 0.06012~
#>  8 2016-0~ gyro north see~ 420.~ 420.~ 0.00~ 6.15~ 0.215~ -0.28~ 0.21588~
#>  9 2016-0~ gyro north see~ 454.~ 454.~ 0.08~ 3.45~ -1.01~ -0.72~ -1.0151~
#> 10 2016-0~ gyro north see~ 497.~ 497.~ 0.15~ 3.48~ -5.80~ -2.36~ -5.8030~
#> # ... with 15 more rows, and 9 more variables: dls <chr>,
#> #   typeSurveyTool <chr>, rateTurn <chr>, rateBuild <chr>,
#> #   gravAccelCorUsed <chr>, magXAxialCorUsed <chr>, sagCorUsed <chr>,
#> #   magDrlstrCorUsed <chr>, statusTrajStation <chr>
dataframe for trajectoryStation/commonData

# cascading way
xpath <- "//trajectoryStation/commonData"
xml_find_all(dat, xpath) %>% 
    xml_children() %>% 
    xml_name() %>% 
    unique()
#> [1] "sourceName"      "dTimCreation"    "dTimLastChange"  "itemState"      
#> [5] "priv_customData"

# get the nodes under trajectoryStation/commonData
tS.cD_df <- nodes_as_df(xml_dat, node = "trajectoryStation/commonData", max_obs = 25)
as.tibble(tS.cD_df)
#> # A tibble: 25 x 5
#>    sourceName  dTimCreation    dTimLastChange   itemState priv_customData  
#>    <chr>       <chr>           <chr>            <chr>     <chr>            
#>  1 Baker Hugh~ 2016-09-29T03:~ 2016-09-29T03:4~ actual    <NA>             
#>  2 Baker Hugh~ 2016-09-29T03:~ 2016-09-29T03:4~ actual    SurveyQC=3,Surve~
#>  3 Baker Hugh~ 2016-09-29T03:~ 2016-09-29T03:4~ actual    SurveyQC=3,Surve~
#>  4 Baker Hugh~ 2016-09-29T03:~ 2016-09-29T03:4~ actual    SurveyQC=3,Surve~
#>  5 Baker Hugh~ 2016-09-29T03:~ 2016-09-29T03:4~ actual    SurveyQC=3,Surve~
#>  6 Baker Hugh~ 2016-09-29T03:~ 2016-09-29T03:4~ actual    SurveyQC=3,Surve~
#>  7 Baker Hugh~ 2016-09-29T03:~ 2016-09-29T03:4~ actual    SurveyQC=3,Surve~
#>  8 Baker Hugh~ 2016-09-29T03:~ 2016-09-29T03:4~ actual    SurveyQC=3,Surve~
#>  9 Baker Hugh~ 2016-09-29T03:~ 2016-09-29T03:4~ actual    SurveyQC=3,Surve~
#> 10 Baker Hugh~ 2016-09-29T03:~ 2016-09-29T03:4~ actual    SurveyQC=3,Surve~
#> # ... with 15 more rows

corUsed

# cascading way
xpath <- "//trajectoryStation/corUsed"
xml_find_all(dat, xpath) %>% 
    xml_children() %>% 
    xml_name() %>% 
    unique()
#> [1] "stnGridCorUsed"  "dirSensorOffset"

# get the nodes under trajectoryStation/commonData
tS.cU_df <- nodes_as_df(xml_dat, node = "trajectoryStation/corUsed", max_obs = 25)
as.tibble(tS.cU_df)
#> # A tibble: 25 x 2
#>    stnGridCorUsed dirSensorOffset
#>    <chr>          <chr>          
#>  1 <NA>           <NA>           
#>  2 999.25         0              
#>  3 999.25         0              
#>  4 999.25         0              
#>  5 999.25         0              
#>  6 999.25         0              
#>  7 999.25         0              
#>  8 999.25         0              
#>  9 999.25         0              
#> 10 999.25         0              
#> # ... with 15 more rows
…
measurement stations data

commonData, which originally had children

corUsed, also with children nodes

# combine all dataframes to make up trajectoryStation dataframe
  # tS.uid_dt: trajectoryStation attributes
  # tS_df: trajectoryStation data
  # tS.cD_df: commonData
trajectoryStation_df <- cbind(tS.uid_dt, tS_df, tS.cU_df, tS.cD_df)
trajectoryStation_dt <- data.table(trajectoryStation_df)
as.tibble(trajectoryStation_df)
#> # A tibble: 25 x 26
#>    uid   dTimStn typeTrajStation md    tvd   incl  azi   dispNs dispEw
#>    <chr> <chr>   <chr>           <chr> <chr> <chr> <chr> <chr>  <chr> 
#>  1 4VIR~ 2016-0~ tie in point    0     0     0     0     0      0     
#>  2 325V~ 2016-0~ gyro north see~ 145.~ 145.~ 0     0     0      0     
#>  3 326V~ 2016-0~ gyro north see~ 218.5 218.~ 0.00~ 3.44~ -0.15~ -0.04~
#>  4 327V~ 2016-0~ gyro north see~ 259   258.~ 0.00~ 4.45~ -0.26~ -0.13~
#>  5 328V~ 2016-0~ gyro north see~ 299.5 299.~ 0.00~ 4.20~ -0.33~ -0.30~
#>  6 329V~ 2016-0~ gyro north see~ 340   339.~ 0.00~ 0.61~ -0.27~ -0.32~
#>  7 330V~ 2016-0~ gyro north see~ 394.~ 394.~ 0.00~ 6.00~ 0.060~ -0.25~
#>  8 331V~ 2016-0~ gyro north see~ 420.~ 420.~ 0.00~ 6.15~ 0.215~ -0.28~
#>  9 332V~ 2016-0~ gyro north see~ 454.~ 454.~ 0.08~ 3.45~ -1.01~ -0.72~
#> 10 333V~ 2016-0~ gyro north see~ 497.~ 497.~ 0.15~ 3.48~ -5.80~ -2.36~
#> # ... with 15 more rows, and 17 more variables: vertSect <chr>, dls <chr>,
#> #   typeSurveyTool <chr>, rateTurn <chr>, rateBuild <chr>,
#> #   gravAccelCorUsed <chr>, magXAxialCorUsed <chr>, sagCorUsed <chr>,
#> #   magDrlstrCorUsed <chr>, statusTrajStation <chr>, stnGridCorUsed <chr>,
#> #   dirSensorOffset <chr>, sourceName <chr>, dTimCreation <chr>,
#> #   dTimLastChange <chr>, itemState <chr>, priv_customData <chr>
…
We have one interesting thing going on. The have the trajectory dataframe that is one row and 17 columns, while trajectoryStation is 25 rows by 27 columns. How do we work them out in rectangular tables:

Join trajectory and trajectoryStation dataframes

setkey(trajectory_dt, uid)
setkey(trajectoryStation_dt, id)

# inner join
t_9f9_dt <- trajectory_dt[trajectoryStation_dt, nomatch=0] %>% 
    as.tibble() %>% 
    print()
#> # A tibble: 25 x 43
#>    uidWell uidWellbore uid   nameWell nameWellbore name  objectGrowing
#>    <chr>   <chr>       <chr> <chr>    <chr>        <chr> <chr>        
#>  1 432612~ d1c7a0d7-a~ 4VIR~ NO 15/9~ NO 15/9-F-9~ MWD-~ false        
#>  2 432612~ d1c7a0d7-a~ 4VIR~ NO 15/9~ NO 15/9-F-9~ MWD-~ false        
#>  3 432612~ d1c7a0d7-a~ 4VIR~ NO 15/9~ NO 15/9-F-9~ MWD-~ false        
#>  4 432612~ d1c7a0d7-a~ 4VIR~ NO 15/9~ NO 15/9-F-9~ MWD-~ false        
#>  5 432612~ d1c7a0d7-a~ 4VIR~ NO 15/9~ NO 15/9-F-9~ MWD-~ false        
#>  6 432612~ d1c7a0d7-a~ 4VIR~ NO 15/9~ NO 15/9-F-9~ MWD-~ false        
#>  7 432612~ d1c7a0d7-a~ 4VIR~ NO 15/9~ NO 15/9-F-9~ MWD-~ false        
#>  8 432612~ d1c7a0d7-a~ 4VIR~ NO 15/9~ NO 15/9-F-9~ MWD-~ false        
#>  9 432612~ d1c7a0d7-a~ 4VIR~ NO 15/9~ NO 15/9-F-9~ MWD-~ false        
#> 10 432612~ d1c7a0d7-a~ 4VIR~ NO 15/9~ NO 15/9-F-9~ MWD-~ false        
#> # ... with 15 more rows, and 36 more variables: dTimTrajStart <chr>,
#> #   dTimTrajEnd <chr>, mdMn <chr>, mdMx <chr>, magDeclUsed <chr>,
#> #   gridCorUsed <chr>, aziVertSect <chr>, dispNsVertSectOrig <chr>,
#> #   dispEwVertSectOrig <chr>, aziRef <chr>, i.uid <chr>, dTimStn <chr>,
#> #   typeTrajStation <chr>, md <chr>, tvd <chr>, incl <chr>, azi <chr>,
#> #   dispNs <chr>, dispEw <chr>, vertSect <chr>, dls <chr>,
#> #   typeSurveyTool <chr>, rateTurn <chr>, rateBuild <chr>,
#> #   gravAccelCorUsed <chr>, magXAxialCorUsed <chr>, sagCorUsed <chr>,
#> #   magDrlstrCorUsed <chr>, statusTrajStation <chr>, stnGridCorUsed <chr>,
…
make_trajectory_table <- function(t_dt, tS_dt) {
    setkey(t_dt, "uid")
    setkey(tS_dt, "id")
    
    # inner join
    result <- t_dt[tS_dt, nomatch=0]
    result %>% 
    as.tibble()
}

t_9f7_dt <- make_trajectory_table(trajectory_dt, trajectoryStation_dt)
well_9f7_df <- t_9f7_dt
t_9f7_dt
#> # A tibble: 42 x 43
#>    uidWell uidWellbore uid   nameWell nameWellbore name  objectGrowing
#>    <chr>   <chr>       <chr> <chr>    <chr>        <chr> <chr>        
#>  1 5da3ae~ eba2d47b-9~ 5VFN~ NO 15/9~ NO 15/9-F-7  MWD-~ false        
#>  2 5da3ae~ eba2d47b-9~ 5VFN~ NO 15/9~ NO 15/9-F-7  MWD-~ false        
#>  3 5da3ae~ eba2d47b-9~ 5VFN~ NO 15/9~ NO 15/9-F-7  MWD-~ false        
#>  4 5da3ae~ eba2d47b-9~ 5VFN~ NO 15/9~ NO 15/9-F-7  MWD-~ false        
#>  5 5da3ae~ eba2d47b-9~ 5VFN~ NO 15/9~ NO 15/9-F-7  MWD-~ false        
#>  6 5da3ae~ eba2d47b-9~ 5VFN~ NO 15/9~ NO 15/9-F-7  MWD-~ false        
#>  7 5da3ae~ eba2d47b-9~ 5VFN~ NO 15/9~ NO 15/9-F-7  MWD-~ false        
#>  8 5da3ae~ eba2d47b-9~ 5VFN~ NO 15/9~ NO 15/9-F-7  MWD-~ false        
#>  9 5da3ae~ eba2d47b-9~ 5VFN~ NO 15/9~ NO 15/9-F-7  MWD-~ false        
#> 10 5da3ae~ eba2d47b-9~ 5VFN~ NO 15/9~ NO 15/9-F-7  MWD-~ false        
#> # ... with 32 more rows, and 36 more variables: dTimTrajStart <chr>,
#> #   dTimTrajEnd <chr>, mdMn <chr>, mdMx <chr>, magDeclUsed <chr>,
#> #   gridCorUsed <chr>, aziVertSect <chr>, dispNsVertSectOrig <chr>,
#> #   dispEwVertSectOrig <chr>, aziRef <chr>, i.uid <chr>, dTimStn <chr>,
#> #   typeTrajStation <chr>, md <chr>, tvd <chr>, incl <chr>, azi <chr>,
#> #   dispNs <chr>, dispEw <chr>, vertSect <chr>, dls <chr>,
#> #   typeSurveyTool <chr>, rateTurn <chr>, rateBuild <chr>,
#> #   gravAccelCorUsed <chr>, magXAxialCorUsed <chr>, sagCorUsed <chr>,
#> #   magDrlstrCorUsed <chr>, statusTrajStation <chr>, stnGridCorUsed <chr>,
…
source("witsml-trajectory.R")

all_files_xml <- list.files("./witsml", recursive = TRUE, full.names = TRUE, 
                        include.dirs = TRUE, pattern = "*.xml")

# Select the trajectory file
# get the file for trajectory
traj_files <- grep(pattern = "trajectory", ignore.case = TRUE, 
                   value = TRUE, x = all_files_xml)

well_9f7 <- traj_files[2]

well_9f7_df <- convert_witsml_to_df(well_9f7)
well_9f7_df
#> # A tibble: 42 x 43
#>    uidWell uidWellbore uid   nameWell nameWellbore name  objectGrowing
#>    <chr>   <chr>       <chr> <chr>    <chr>        <chr> <chr>        
#>  1 5da3ae~ eba2d47b-9~ 5VFN~ NO 15/9~ NO 15/9-F-7  MWD-~ false        
#>  2 5da3ae~ eba2d47b-9~ 5VFN~ NO 15/9~ NO 15/9-F-7  MWD-~ false        
#>  3 5da3ae~ eba2d47b-9~ 5VFN~ NO 15/9~ NO 15/9-F-7  MWD-~ false        
#>  4 5da3ae~ eba2d47b-9~ 5VFN~ NO 15/9~ NO 15/9-F-7  MWD-~ false        
#>  5 5da3ae~ eba2d47b-9~ 5VFN~ NO 15/9~ NO 15/9-F-7  MWD-~ false        
#>  6 5da3ae~ eba2d47b-9~ 5VFN~ NO 15/9~ NO 15/9-F-7  MWD-~ false        
#>  7 5da3ae~ eba2d47b-9~ 5VFN~ NO 15/9~ NO 15/9-F-7  MWD-~ false        
#>  8 5da3ae~ eba2d47b-9~ 5VFN~ NO 15/9~ NO 15/9-F-7  MWD-~ false        
#>  9 5da3ae~ eba2d47b-9~ 5VFN~ NO 15/9~ NO 15/9-F-7  MWD-~ false        
#> 10 5da3ae~ eba2d47b-9~ 5VFN~ NO 15/9~ NO 15/9-F-7  MWD-~ false        
#> # ... with 32 more rows, and 36 more variables: dTimTrajStart <chr>,
#> #   dTimTrajEnd <chr>, mdMn <chr>, mdMx <chr>, magDeclUsed <chr>,
#> #   gridCorUsed <chr>, aziVertSect <chr>, dispNsVertSectOrig <chr>,
#> #   dispEwVertSectOrig <chr>, aziRef <chr>, i.uid <chr>, dTimStn <chr>,
#> #   typeTrajStation <chr>, md <chr>, tvd <chr>, incl <chr>, azi <chr>,
#> #   dispNs <chr>, dispEw <chr>, vertSect <chr>, dls <chr>,
#> #   typeSurveyTool <chr>, rateTurn <chr>, rateBuild <chr>,
#> #   gravAccelCorUsed <chr>, magXAxialCorUsed <chr>, sagCorUsed <chr>,
#> #   magDrlstrCorUsed <chr>, statusTrajStation <chr>, stnGridCorUsed <chr>,
#> #   dirSensorOffset <chr>, sourceName <chr>, dTimCreation <chr>,
#> #   dTimLastChange <chr>, itemState <chr>, priv_customData <chr>

Combine the two wells with rbind

Now it’s the time to combine both wells

# bind two wells and create a common dataframe
all_wells <- rbind(well_9f7_df, well_9f9_df)
all_wells
#> # A tibble: 67 x 43
#>    uidWell uidWellbore uid   nameWell nameWellbore name  objectGrowing
#>    <chr>   <chr>       <chr> <chr>    <chr>        <chr> <chr>        
#>  1 5da3ae~ eba2d47b-9~ 5VFN~ NO 15/9~ NO 15/9-F-7  MWD-~ false        
#>  2 5da3ae~ eba2d47b-9~ 5VFN~ NO 15/9~ NO 15/9-F-7  MWD-~ false        
#>  3 5da3ae~ eba2d47b-9~ 5VFN~ NO 15/9~ NO 15/9-F-7  MWD-~ false        
#>  4 5da3ae~ eba2d47b-9~ 5VFN~ NO 15/9~ NO 15/9-F-7  MWD-~ false        
#>  5 5da3ae~ eba2d47b-9~ 5VFN~ NO 15/9~ NO 15/9-F-7  MWD-~ false        
#>  6 5da3ae~ eba2d47b-9~ 5VFN~ NO 15/9~ NO 15/9-F-7  MWD-~ false        
#>  7 5da3ae~ eba2d47b-9~ 5VFN~ NO 15/9~ NO 15/9-F-7  MWD-~ false        
#>  8 5da3ae~ eba2d47b-9~ 5VFN~ NO 15/9~ NO 15/9-F-7  MWD-~ false        
#>  9 5da3ae~ eba2d47b-9~ 5VFN~ NO 15/9~ NO 15/9-F-7  MWD-~ false        
#> 10 5da3ae~ eba2d47b-9~ 5VFN~ NO 15/9~ NO 15/9-F-7  MWD-~ false        
#> # ... with 57 more rows, and 36 more variables: dTimTrajStart <chr>,
#> #   dTimTrajEnd <chr>, mdMn <chr>, mdMx <chr>, magDeclUsed <chr>,
#> #   gridCorUsed <chr>, aziVertSect <chr>, dispNsVertSectOrig <chr>,
#> #   dispEwVertSectOrig <chr>, aziRef <chr>, i.uid <chr>, dTimStn <chr>,
#> #   typeTrajStation <chr>, md <chr>, tvd <chr>, incl <chr>, azi <chr>,
#> #   dispNs <chr>, dispEw <chr>, vertSect <chr>, dls <chr>,
#> #   typeSurveyTool <chr>, rateTurn <chr>, rateBuild <chr>,
#> #   gravAccelCorUsed <chr>, magXAxialCorUsed <chr>, sagCorUsed <chr>,
#> #   magDrlstrCorUsed <chr>, statusTrajStation <chr>, stnGridCorUsed <chr>,
…
Add new wells

We will add one more well: Norway-Statoil-NO 15_$47$_9-F-4. This well has 87 measurement points for its trajectory.

# convert a WITSML trajectory to dataframe
well_9f4  <- traj_files[1] 
well_9f4_df <- convert_witsml_to_df(well_9f4)
well_9f4_df
#> # A tibble: 87 x 43
#>    uidWell uidWellbore uid   nameWell nameWellbore name  objectGrowing
#>    <chr>   <chr>       <chr> <chr>    <chr>        <chr> <chr>        
#>  1 5e023a~ dbffce7a-7~ 5VIR~ NO 15/9~ NO 15/9-F-4  MWD-~ false        
#>  2 5e023a~ dbffce7a-7~ 5VIR~ NO 15/9~ NO 15/9-F-4  MWD-~ false        
#>  3 5e023a~ dbffce7a-7~ 5VIR~ NO 15/9~ NO 15/9-F-4  MWD-~ false        
#>  4 5e023a~ dbffce7a-7~ 5VIR~ NO 15/9~ NO 15/9-F-4  MWD-~ false        
#>  5 5e023a~ dbffce7a-7~ 5VIR~ NO 15/9~ NO 15/9-F-4  MWD-~ false        
#>  6 5e023a~ dbffce7a-7~ 5VIR~ NO 15/9~ NO 15/9-F-4  MWD-~ false        
#>  7 5e023a~ dbffce7a-7~ 5VIR~ NO 15/9~ NO 15/9-F-4  MWD-~ false        
#>  8 5e023a~ dbffce7a-7~ 5VIR~ NO 15/9~ NO 15/9-F-4  MWD-~ false        
#>  9 5e023a~ dbffce7a-7~ 5VIR~ NO 15/9~ NO 15/9-F-4  MWD-~ false        
#> 10 5e023a~ dbffce7a-7~ 5VIR~ NO 15/9~ NO 15/9-F-4  MWD-~ false        
#> # ... with 77 more rows, and 36 more variables: dTimTrajStart <chr>,
#> #   dTimTrajEnd <chr>, mdMn <chr>, mdMx <chr>, magDeclUsed <chr>,
#> #   gridCorUsed <chr>, aziVertSect <chr>, dispNsVertSectOrig <chr>,
#> #   dispEwVertSectOrig <chr>, aziRef <chr>, i.uid <chr>, dTimStn <chr>,
#> #   typeTrajStation <chr>, md <chr>, tvd <chr>, incl <chr>, azi <chr>,
#> #   dispNs <chr>, dispEw <chr>, vertSect <chr>, dls <chr>,
#> #   typeSurveyTool <chr>, rateTurn <chr>, rateBuild <chr>,
#> #   gravAccelCorUsed <chr>, magXAxialCorUsed <chr>, sagCorUsed <chr>,
#> #   magDrlstrCorUsed <chr>, statusTrajStation <chr>, stnGridCorUsed <chr>,
…
Transforming the drilling data

wells_kvars <- 
    wells_nested_3 %>% 
    unnest(data) %>% 
    select(nameWell, md, tvd, incl, azi, rateTurn, rateBuild) %>% 
    mutate(md = as.double(md), tvd = as.double(tvd), 
           incl = as.double(incl), azi = as.double(azi),
           rateTurn = as.double(rateTurn), rateBuild = as.double(rateBuild)) %>% 
    print()
#> # A tibble: 154 x 7
#>    nameWell       md   tvd    incl   azi  rateTurn   rateBuild
#>    <chr>       <dbl> <dbl>   <dbl> <dbl>     <dbl>       <dbl>
#>  1 NO 15/9-F-7    0     0  0        0     NA        NA        
#>  2 NO 15/9-F-7  146.  146. 0        0      0         0        
#>  3 NO 15/9-F-7  160   160. 0.00401  4.79  -0.106     0.000285 
#>  4 NO 15/9-F-7  170   170. 0.00454  4.76  -0.00284   0.0000524
#>  5 NO 15/9-F-7  180   180. 0.00524  4.58  -0.0186    0.0000698
#>  6 NO 15/9-F-7  190   190. 0.00384  4.67   0.00965  -0.000140 
#>  7 NO 15/9-F-7  199   199. 0.00559  4.54  -0.0142    0.000194 
#>  8 NO 15/9-F-7  208   208. 0.00541  3.96  -0.0651   -0.0000194
#>  9 NO 15/9-F-7  218   218. 0.00698  4.27   0.0314    0.000157 
#> 10 NO 15/9-F-7  229   229. 0.00436  4.36   0.00820  -0.000238 
#> # ... with 144 more rows
…
